[
  {
    "id": "id1",
    "displayName": "namho",
    "action": "follow",
    "createdAt": "2021-02-18T09:48:38.853Z"
  },
  {
    "id": "id2",
    "displayName": "linkka",
    "action": "like",
    "postId": "idhhd",
    "createdAt": "2021-02-18T09:48:38.853Z"
  },
  {
    "id": "id3",
    "displayName": "huacung",
    "action": "like",
    "postId": "idhh",
    "createdAt": "2021-02-18T09:48:38.853Z"
  },
  {
    "id": "id4",
    "displayName": "linkka",
    "action": "like",
    "postId": "idhd",
    "createdAt": "2021-02-18T09:48:38.853Z"
  }
]
